…
get_date <- function(html){
html %>%  
  html_nodes(".review-content-header__dates") %>%
  html_text %>%
  str_match('\\d.+?Z') %>% 
  lubridate::ymd_hms()
 }

Now all pieces are together to run get_page_data().

get_page_data("https://www.trustpilot.com/review/www.amazon.com") %>% print(n = 5)

## # A tibble: 20 x 5
##   name      date                rating title        review_text            
##   <chr>     <dttm>               <dbl> <chr>        <chr>                  
## 1 Graham H~ 2019-08-23 19:58:31      1 Amazon is o~ Amazon is only efficie~
## 2 TS        2019-08-23 19:57:59      1 CUSTOMER SE~ CUSTOMER SERVICE PATHE~
## 3 Tomer Ma~ 2019-08-23 19:10:29      5 amazon is e~ amazon is excellent, g~
## 4 Luis Jav~ 2019-08-23 18:56:15      2 After order~ After ordering weekly ~
## 5 Candice   2019-08-23 14:49:45      5 I use Amazo~ "I use Amazon ALL of t~
## # ... with 15 more rows
…
The function in action

company <- "www.amazon.com"
amazon_reviews <- get_company_data("www.amazon.com", num_pages = 3)
print(amazon_reviews, n = 5)

## # A tibble: 60 x 5
##   name      date                rating title        review_text            
##   <chr>     <dttm>               <dbl> <chr>        <chr>                  
## 1 Graham H~ 2019-08-23 19:58:31      1 Amazon is o~ Amazon is only efficie~
## 2 TS        2019-08-23 19:57:59      1 CUSTOMER SE~ CUSTOMER SERVICE PATHE~
## 3 Tomer Ma~ 2019-08-23 19:10:29      5 amazon is e~ amazon is excellent, g~
## 4 Luis Jav~ 2019-08-23 18:56:15      2 After order~ After ordering weekly ~
## 5 Candice   2019-08-23 14:49:45      5 I use Amazo~ "I use Amazon ALL of t~
## # ... with 55 more rows
